Klasyfikacja jakości portugalskiego wina
…
5.2.2 Transformacja Yeo-Johnson

Niektóre zmienne wykazują znaczną asymetrię oraz obecność wartości odstających, które mogą utrudniać modelowanie, dlatego dla wybranych zmiennych zastosuję transformację Yeo-Johnsona, która:

Zmniejszy asymetrię rozkładu zmiennych,

Zredukuje wpływ wartości odstających,

Ułatwi spełnienie założeń modeli predykcyjnych, szczególnie tych wymagających normalności rozkładu cech (np. regresji liniowej lub logistycznej).

Może być stosowana zarówno do zmiennych przyjmujących wartości dodatnie, jak i ujemne co jest bardzo przydatne do mojego zbioru.

# A tibble: 28 × 9
   wflow_id    .config    preproc model .metric .estimator    mean     n std_err
   <chr>       <chr>      <chr>   <chr> <chr>   <chr>        <dbl> <int>   <dbl>
 1 rec_d_lr_lr Preproces… recipe  logi… accura… multiclass 2.13e-2     5 4.49e-3
 2 rec_d_lr_lr Preproces… recipe  logi… f_meas  macro      3.22e-2     5 6.75e-3
 3 rec_d_lr_lr Preproces… recipe  logi… j_index macro      8.78e-4     5 5.76e-4
 4 rec_d_lr_lr Preproces… recipe  logi… kap     multiclass 1.55e-4     5 7.24e-5
 5 rec_dt_dt   Preproces… recipe  deci… accura… multiclass 3.91e-1     5 1.26e-2
 6 rec_dt_dt   Preproces… recipe  deci… f_meas  macro      2.50e-1     5 2.24e-2
 7 rec_dt_dt   Preproces… recipe  deci… j_index macro      1.79e-1     5 4.02e-2
 8 rec_dt_dt   Preproces… recipe  deci… kap     multiclass 1.79e-1     5 1.22e-2
 9 rec_rf_rf   Preproces… recipe  rand… accura… multiclass 5.97e-1     5 1.11e-2
10 rec_rf_rf   Preproces… recipe  rand… f_meas  macro      3.66e-1     5 1.66e-2
# ℹ 18 more rows
…
